HTTP/1.1 200 OK
Date: Wed, 18 Mar 2026 10:08:34 GMT
Content-Type: application/json; charset=utf-8
Content-Length: 982
Connection: keep-alive
Access-Control-Allow-Origin: *
Access-Control-Allow-Credentials: true
Access-Control-Expose-Headers: set-cookie,Set-Cookie
Cross-Origin-Opener-Policy: same-origin
Cross-Origin-Resource-Policy: same-origin
Origin-Agent-Cluster: ?1
Referrer-Policy: no-referrer
Strict-Transport-Security: max-age=15724800; includeSubDomains
X-Content-Type-Options: ALWAYS
X-DNS-Prefetch-Control: off
X-Download-Options: noopen
X-Frame-Options: ALWAYS
X-Permitted-Cross-Domain-Policies: none
X-XSS-Protection: ALWAYS
ETag: W/"3d6-515/AZW2IbVL8JPD4wsn1+T8/7U"
Content-Security-Policy: upgrade-insecure-requests

{
    "modelList": [
        {
            "modelFeatures": [
                
            ],
            "trimFeatures": [
                
            ],
            "trims": [
                
            ],
            "id": 11,
            "name": "Punto Evo",
            "imageUrl": ""
        },
        {
            "modelFeatures": [
                
            ],
            "trimFeatures": [
                
            ],
            "trims": [
                
            ],
            "id": 10,
            "name": "Grande Punto",
            "imageUrl": ""
        },
        {
            "modelFeatures": [
                
            ],
            "trimFeatures": [
                
            ],
            "trims": [
                
            ],
            "id": 9,
            "name": "695C",
            "imageUrl": ""
        },
        {
            "modelFeatures": [
                
            ],
            "trimFeatures": [
                
            ],
            "trims": [
                
            ],
            "id": 8,
            "name": "695",
            "imageUrl": ""
        },
        {
            "modelFeatures": [
                
            ],
            "trimFeatures": [
                
            ],
            "trims": [
                
            ],
            "id": 7,
            "name": "595 Turismo",
            "imageUrl": ""
        },
        {
            "modelFeatures": [
                
            ],
            "trimFeatures": [
                
            ],
            "trims": [
                
            ],
            "id": 6,
            "name": "595 Competizione",
            "imageUrl": ""
        },
        {
            "modelFeatures": [
                
            ],
            "trimFeatures": [
                
            ],
            "trims": [
                
            ],
            "id": 5,
            "name": "595C",
            "imageUrl": ""
        },
        {
            "modelFeatures": [
                
            ],
            "trimFeatures": [
                
            ],
            "trims": [
                
            ],
            "id": 4,
            "name": "595",
            "imageUrl": ""
        },
        {
            "modelFeatures": [
                
            ],
            "trimFeatures": [
                
            ],
            "trims": [
                
            ],
            "id": 3,
            "name": "500C",
            "imageUrl": ""
        },
        {
            "modelFeatures": [
                
            ],
            "trimFeatures": [
                
            ],
            "trims": [
                
            ],
            "id": 2,
            "name": "500",
            "imageUrl": ""
        }
    ],
    "pagination": {
        "total": 3353,
        "currentPage": 1,
        "pageSize": 10,
        "nextPage": 2,
        "lastPage": 336
    }
}
