HTTP/1.1 200 OK
Date: Wed, 18 Mar 2026 10:08:56 GMT
Content-Type: application/json; charset=utf-8
Content-Length: 649
Connection: keep-alive
Access-Control-Allow-Origin: *
Access-Control-Allow-Credentials: true
Access-Control-Expose-Headers: set-cookie,Set-Cookie
Cross-Origin-Opener-Policy: same-origin
Cross-Origin-Resource-Policy: same-origin
Origin-Agent-Cluster: ?1
Referrer-Policy: no-referrer
Strict-Transport-Security: max-age=15724800; includeSubDomains
X-Content-Type-Options: ALWAYS
X-DNS-Prefetch-Control: off
X-Download-Options: noopen
X-Frame-Options: ALWAYS
X-Permitted-Cross-Domain-Policies: none
X-XSS-Protection: ALWAYS
ETag: W/"289-iqRLcdbLzhcYxk+6yE67ZzzOYCQ"
Content-Security-Policy: upgrade-insecure-requests

{
    "obds": [
        {
            "description": "climate control pushbutton circuit failure"
        },
        {
            "description": "fuel sender circuit failure"
        },
        {
            "description": "fuel sender circuit open"
        },
        {
            "description": "fuel sender circuit short to battery"
        },
        {
            "description": "fuel sender circuit short to ground"
        },
        {
            "description": "eic switch-1 assembly circuit failure"
        },
        {
            "description": "eic switch-1 assembly circuit open"
        },
        {
            "description": "eic switch-1 assembly circuit short to battery"
        },
        {
            "description": "eic switch-1 assembly circuit short to ground"
        },
        {
            "description": "eic switch-2 assembly circuit failure"
        }
    ],
    "pagination": {
        "total": 3223,
        "currentPage": 1,
        "pageSize": 10,
        "nextPage": 2,
        "lastPage": 323
    }
}
