HTTP/1.1 200 OK
Date: Wed, 18 Mar 2026 07:04:08 GMT
Content-Type: application/json; charset=utf-8
Content-Length: 130
Connection: keep-alive
Access-Control-Allow-Origin: *
Access-Control-Allow-Credentials: true
Access-Control-Expose-Headers: set-cookie,Set-Cookie
Cross-Origin-Opener-Policy: same-origin
Cross-Origin-Resource-Policy: same-origin
Origin-Agent-Cluster: ?1
Referrer-Policy: no-referrer
Strict-Transport-Security: max-age=15724800; includeSubDomains
X-Content-Type-Options: ALWAYS
X-DNS-Prefetch-Control: off
X-Download-Options: noopen
X-Frame-Options: ALWAYS
X-Permitted-Cross-Domain-Policies: none
X-XSS-Protection: ALWAYS
ETag: W/"82-iULZMzOWGjuVvfw+T5u4y9zrbu8"
Content-Security-Policy: upgrade-insecure-requests

{
    "result": [
        {
            
        },
        {
            
        },
        {
            
        },
        {
            
        },
        {
            
        },
        {
            
        },
        {
            
        },
        {
            
        },
        {
            
        },
        {
            
        }
    ],
    "pagination": {
        "total": 42949,
        "currentPage": 1,
        "pageSize": 10,
        "nextPage": 2,
        "lastPage": 4295
    }
}
