HTTP/1.1 200 OK
Date: Tue, 10 Mar 2026 04:22:49 GMT
Content-Type: application/json; charset=utf-8
Content-Length: 295
Connection: keep-alive
Access-Control-Allow-Origin: *
Access-Control-Allow-Credentials: true
Access-Control-Expose-Headers: set-cookie,Set-Cookie
Cross-Origin-Opener-Policy: same-origin
Cross-Origin-Resource-Policy: same-origin
Origin-Agent-Cluster: ?1
Referrer-Policy: no-referrer
Strict-Transport-Security: max-age=15724800; includeSubDomains
X-Content-Type-Options: nosniff
X-DNS-Prefetch-Control: off
X-Download-Options: noopen
X-Frame-Options: SAMEORIGIN
X-Permitted-Cross-Domain-Policies: none
X-XSS-Protection: 0
ETag: W/"127-Gb00FCfrMz9K4oX0y5/qblCZ5DE"
server: hide

{
    "brands": [
        {
            "name": "Accelera"
        },
        {
            "name": "Annaite"
        },
        {
            "name": "Armstrong"
        },
        {
            "name": "Austone"
        },
        {
            "name": "BFGGoodrich"
        },
        {
            "name": "BF Goodrich"
        },
        {
            "name": "Boto"
        },
        {
            "name": "Bridgestone"
        },
        {
            "name": "Comfort"
        },
        {
            "name": "Dunlop"
        }
    ],
    "pagination": {
        "total": 37,
        "currentPage": 1,
        "pageSize": 10,
        "nextPage": 2,
        "lastPage": 4
    }
}
