HTTP/1.1 200 OK
Date: Tue, 17 Mar 2026 08:46:30 GMT
Content-Type: application/json; charset=utf-8
Content-Length: 285
Connection: keep-alive
Access-Control-Allow-Origin: *
Access-Control-Allow-Credentials: true
Access-Control-Expose-Headers: set-cookie,Set-Cookie
Cross-Origin-Opener-Policy: same-origin
Cross-Origin-Resource-Policy: same-origin
Origin-Agent-Cluster: ?1
Referrer-Policy: no-referrer
Strict-Transport-Security: max-age=15724800; includeSubDomains
X-Content-Type-Options: ALWAYS
X-DNS-Prefetch-Control: off
X-Download-Options: noopen
X-Frame-Options: ALWAYS
X-Permitted-Cross-Domain-Policies: none
X-XSS-Protection: ALWAYS
ETag: W/"11d-hOKT/f+dV8jvHywXP/BjaiwV1is"
Content-Security-Policy: upgrade-insecure-requests

{
    "makeList": [
        {
            "name": "ABARTH"
        },
        {
            "name": "Acura"
        },
        {
            "name": "ACURA MAKES"
        },
        {
            "name": "AIXAM"
        },
        {
            "name": "ALFA ROMEO"
        },
        {
            "name": "ALPHA"
        },
        {
            "name": "ALPHA1"
        },
        {
            "name": "ALPHA2"
        },
        {
            "name": "ALPHA3"
        },
        {
            "name": "ALPHA 4"
        }
    ],
    "pagination": {
        "total": 211,
        "currentPage": 1,
        "pageSize": 10,
        "nextPage": 2,
        "lastPage": 22
    }
}
