HTTP/1.1 200 OK
Date: Wed, 18 Mar 2026 07:02:54 GMT
Content-Type: application/json; charset=utf-8
Content-Length: 367
Connection: keep-alive
Access-Control-Allow-Origin: *
Access-Control-Allow-Credentials: true
Access-Control-Expose-Headers: set-cookie,Set-Cookie
Cross-Origin-Opener-Policy: same-origin
Cross-Origin-Resource-Policy: same-origin
Origin-Agent-Cluster: ?1
Referrer-Policy: no-referrer
Strict-Transport-Security: max-age=15724800; includeSubDomains
X-Content-Type-Options: ALWAYS
X-DNS-Prefetch-Control: off
X-Download-Options: noopen
X-Frame-Options: ALWAYS
X-Permitted-Cross-Domain-Policies: none
X-XSS-Protection: ALWAYS
ETag: W/"16f-/xLb4L97piSRU7zB8Ip+tAbGmK8"
Content-Security-Policy: upgrade-insecure-requests

{
    "makeList": [
        {
            "id": 1,
            "name": "ABARTH"
        },
        {
            "id": 2,
            "name": "Acura"
        },
        {
            "id": 269,
            "name": "ACURA MAKES"
        },
        {
            "id": 3,
            "name": "AIXAM"
        },
        {
            "id": 4,
            "name": "ALFA ROMEO"
        },
        {
            "id": 244,
            "name": "ALPHA"
        },
        {
            "id": 245,
            "name": "ALPHA1"
        },
        {
            "id": 246,
            "name": "ALPHA2"
        },
        {
            "id": 247,
            "name": "ALPHA3"
        },
        {
            "id": 248,
            "name": "ALPHA 4"
        }
    ],
    "pagination": {
        "total": 211,
        "currentPage": 1,
        "pageSize": 10,
        "nextPage": 2,
        "lastPage": 22
    }
}
