HTTP/1.1 200 OK
Date: Wed, 18 Mar 2026 10:50:30 GMT
Content-Type: application/json; charset=utf-8
Content-Length: 801
Connection: keep-alive
Access-Control-Allow-Origin: *
Access-Control-Allow-Credentials: true
Access-Control-Expose-Headers: set-cookie,Set-Cookie
Cross-Origin-Opener-Policy: same-origin
Cross-Origin-Resource-Policy: same-origin
Origin-Agent-Cluster: ?1
Referrer-Policy: no-referrer
Strict-Transport-Security: max-age=15724800; includeSubDomains
X-Content-Type-Options: ALWAYS
X-DNS-Prefetch-Control: off
X-Download-Options: noopen
X-Frame-Options: ALWAYS
X-Permitted-Cross-Domain-Policies: none
X-XSS-Protection: ALWAYS
ETag: W/"321-5IOOp1Q+2oFe/whzL67AytqRWuU"
Content-Security-Policy: upgrade-insecure-requests

{
    "modelList": [
        {
            "modelFeatures": [
                
            ],
            "trimFeatures": [
                
            ],
            "trims": [
                
            ],
            "id": 4296,
            "trim": ""
        },
        {
            "modelFeatures": [
                
            ],
            "trimFeatures": [
                
            ],
            "trims": [
                
            ],
            "id": 4270,
            "trim": ""
        },
        {
            "modelFeatures": [
                
            ],
            "trimFeatures": [
                
            ],
            "trims": [
                
            ],
            "id": 4272,
            "trim": ""
        },
        {
            "modelFeatures": [
                
            ],
            "trimFeatures": [
                
            ],
            "trims": [
                
            ],
            "id": 4276,
            "trim": ""
        },
        {
            "modelFeatures": [
                
            ],
            "trimFeatures": [
                
            ],
            "trims": [
                
            ],
            "id": 4278,
            "trim": ""
        },
        {
            "modelFeatures": [
                
            ],
            "trimFeatures": [
                
            ],
            "trims": [
                
            ],
            "id": 4279,
            "trim": ""
        },
        {
            "modelFeatures": [
                
            ],
            "trimFeatures": [
                
            ],
            "trims": [
                
            ],
            "id": 4280,
            "trim": ""
        },
        {
            "modelFeatures": [
                
            ],
            "trimFeatures": [
                
            ],
            "trims": [
                
            ],
            "id": 4281,
            "trim": ""
        },
        {
            "modelFeatures": [
                
            ],
            "trimFeatures": [
                
            ],
            "trims": [
                
            ],
            "id": 4283,
            "trim": ""
        },
        {
            "modelFeatures": [
                
            ],
            "trimFeatures": [
                
            ],
            "trims": [
                
            ],
            "id": 4284,
            "trim": ""
        }
    ],
    "pagination": {
        "total": 1946,
        "currentPage": 1,
        "pageSize": 10,
        "nextPage": 2,
        "lastPage": 195
    }
}
