HTTP/1.1 200 OK
Date: Wed, 11 Mar 2026 09:54:05 GMT
Content-Type: application/json; charset=utf-8
Content-Length: 200
Connection: keep-alive
Access-Control-Allow-Origin: *
Access-Control-Allow-Credentials: true
Access-Control-Expose-Headers: set-cookie,Set-Cookie
Cross-Origin-Opener-Policy: same-origin
Cross-Origin-Resource-Policy: same-origin
Origin-Agent-Cluster: ?1
Referrer-Policy: no-referrer
Strict-Transport-Security: max-age=15724800; includeSubDomains
X-Content-Type-Options: nosniff
X-DNS-Prefetch-Control: off
X-Download-Options: noopen
X-Frame-Options: SAMEORIGIN
X-Permitted-Cross-Domain-Policies: none
X-XSS-Protection: 0
ETag: W/"c8-LgH7CeDzHxMGP78DSgrsDDxtsUM"
server: hide

{
    "makeList": [
        {
            "id": 1
        },
        {
            "id": 2
        },
        {
            "id": 269
        },
        {
            "id": 3
        },
        {
            "id": 4
        },
        {
            "id": 244
        },
        {
            "id": 245
        },
        {
            "id": 246
        },
        {
            "id": 247
        },
        {
            "id": 248
        }
    ],
    "pagination": {
        "total": 211,
        "currentPage": 1,
        "pageSize": 10,
        "nextPage": 2,
        "lastPage": 22
    }
}
