HTTP/1.1 200 OK
Date: Wed, 18 Mar 2026 10:50:36 GMT
Content-Type: application/json; charset=utf-8
Content-Length: 3772
Connection: keep-alive
Access-Control-Allow-Origin: *
Access-Control-Allow-Credentials: true
Access-Control-Expose-Headers: set-cookie,Set-Cookie
Cross-Origin-Opener-Policy: same-origin
Cross-Origin-Resource-Policy: same-origin
Origin-Agent-Cluster: ?1
Referrer-Policy: no-referrer
Strict-Transport-Security: max-age=15724800; includeSubDomains
X-Content-Type-Options: ALWAYS
X-DNS-Prefetch-Control: off
X-Download-Options: noopen
X-Frame-Options: ALWAYS
X-Permitted-Cross-Domain-Policies: none
X-XSS-Protection: ALWAYS
ETag: W/"ebc-umGUJQBMFEOopdVFdx0ksPJqyYM"
Content-Security-Policy: upgrade-insecure-requests

{
    "result": [
        {
            "car": {
                "features": [
                    
                ],
                "carFeatures": [
                    
                ],
                "modelFeatures": [
                    
                ],
                "delistReason": [
                    
                ],
                "damageMedia": [
                    
                ],
                "damages": [
                    
                ],
                "carMedias": [
                    
                ],
                "media": [
                    
                ],
                "model": {
                    "modelFeatures": [
                        
                    ],
                    "trimFeatures": [
                        
                    ],
                    "trims": [
                        
                    ],
                    "id": 711,
                    "name": "Accent",
                    "imageUrl": "",
                    "wheelType": "2WD",
                    "make": {
                        "id": 47,
                        "name": "Hyundai",
                        "imageUrl": "https://storage.googleapis.com/img.autochek.africa/brands/hyundai.svg"
                    },
                    "popular": false
                }
            }
        },
        {
            "car": {
                "features": [
                    
                ],
                "carFeatures": [
                    
                ],
                "modelFeatures": [
                    
                ],
                "delistReason": [
                    
                ],
                "damageMedia": [
                    
                ],
                "damages": [
                    
                ],
                "carMedias": [
                    
                ],
                "media": [
                    
                ],
                "model": {
                    "modelFeatures": [
                        
                    ],
                    "trimFeatures": [
                        
                    ],
                    "trims": [
                        
                    ],
                    "id": 711,
                    "name": "Accent",
                    "imageUrl": "",
                    "wheelType": "2WD",
                    "make": {
                        "id": 47,
                        "name": "Hyundai",
                        "imageUrl": "https://storage.googleapis.com/img.autochek.africa/brands/hyundai.svg"
                    },
                    "popular": false
                }
            }
        },
        {
            "car": {
                "features": [
                    
                ],
                "carFeatures": [
                    
                ],
                "modelFeatures": [
                    
                ],
                "delistReason": [
                    
                ],
                "damageMedia": [
                    
                ],
                "damages": [
                    
                ],
                "carMedias": [
                    
                ],
                "media": [
                    
                ],
                "model": {
                    "modelFeatures": [
                        
                    ],
                    "trimFeatures": [
                        
                    ],
                    "trims": [
                        
                    ],
                    "id": 257,
                    "name": "X1",
                    "imageUrl": "",
                    "wheelType": "2WD",
                    "series": "X Series",
                    "make": {
                        "id": 13,
                        "name": "BMW",
                        "imageUrl": "https://storage.googleapis.com/img.autochek.africa/brands/bmw.svg"
                    },
                    "popular": false
                }
            }
        },
        {
            "car": {
                "features": [
                    
                ],
                "carFeatures": [
                    
                ],
                "modelFeatures": [
                    
                ],
                "delistReason": [
                    
                ],
                "damageMedia": [
                    
                ],
                "damages": [
                    
                ],
                "carMedias": [
                    
                ],
                "media": [
                    
                ],
                "model": {
                    "modelFeatures": [
                        
                    ],
                    "trimFeatures": [
                        
                    ],
                    "trims": [
                        
                    ],
                    "id": 841,
                    "name": "Sportage",
                    "imageUrl": "",
                    "wheelType": "2WD",
                    "make": {
                        "id": 53,
                        "name": "Kia",
                        "imageUrl": "https://i.imgur.com/0Bk6H23.png"
                    },
                    "popular": true
                }
            }
        },
        {
            "car": {
                "features": [
                    
                ],
                "carFeatures": [
                    
                ],
                "modelFeatures": [
                    
                ],
                "delistReason": [
                    
                ],
                "damageMedia": [
                    
                ],
                "damages": [
                    
                ],
                "carMedias": [
                    
                ],
                "media": [
                    
                ],
                "model": {
                    "modelFeatures": [
                        
                    ],
                    "trimFeatures": [
                        
                    ],
                    "trims": [
                        
                    ],
                    "id": 841,
                    "name": "Sportage",
                    "imageUrl": "",
                    "wheelType": "2WD",
                    "make": {
                        "id": 53,
                        "name": "Kia",
                        "imageUrl": "https://i.imgur.com/0Bk6H23.png"
                    },
                    "popular": true
                }
            }
        },
        {
            "car": {
                "features": [
                    
                ],
                "carFeatures": [
                    
                ],
                "modelFeatures": [
                    
                ],
                "delistReason": [
                    
                ],
                "damageMedia": [
                    
                ],
                "damages": [
                    
                ],
                "carMedias": [
                    
                ],
                "media": [
                    
                ],
                "model": {
                    "modelFeatures": [
                        
                    ],
                    "trimFeatures": [
                        
                    ],
                    "trims": [
                        
                    ],
                    "id": 841,
                    "name": "Sportage",
                    "imageUrl": "",
                    "wheelType": "2WD",
                    "make": {
                        "id": 53,
                        "name": "Kia",
                        "imageUrl": "https://i.imgur.com/0Bk6H23.png"
                    },
                    "popular": true
                }
            }
        },
        {
            "car": {
                "features": [
                    
                ],
                "carFeatures": [
                    
                ],
                "modelFeatures": [
                    
                ],
                "delistReason": [
                    
                ],
                "damageMedia": [
                    
                ],
                "damages": [
                    
                ],
                "carMedias": [
                    
                ],
                "media": [
                    
                ],
                "model": {
                    "modelFeatures": [
                        
                    ],
                    "trimFeatures": [
                        
                    ],
                    "trims": [
                        
                    ],
                    "id": 841,
                    "name": "Sportage",
                    "imageUrl": "",
                    "wheelType": "2WD",
                    "make": {
                        "id": 53,
                        "name": "Kia",
                        "imageUrl": "https://i.imgur.com/0Bk6H23.png"
                    },
                    "popular": true
                }
            }
        },
        {
            "car": {
                "features": [
                    
                ],
                "carFeatures": [
                    
                ],
                "modelFeatures": [
                    
                ],
                "delistReason": [
                    
                ],
                "damageMedia": [
                    
                ],
                "damages": [
                    
                ],
                "carMedias": [
                    
                ],
                "media": [
                    
                ],
                "model": {
                    "modelFeatures": [
                        
                    ],
                    "trimFeatures": [
                        
                    ],
                    "trims": [
                        
                    ],
                    "id": 1891,
                    "name": "Corolla",
                    "imageUrl": "",
                    "wheelType": "2WD",
                    "make": {
                        "id": 106,
                        "name": "Toyota",
                        "imageUrl": "https://storage.googleapis.com/img.autochek.africa/marketplace/toyota.png"
                    },
                    "popular": true
                }
            }
        },
        {
            "car": {
                "features": [
                    
                ],
                "carFeatures": [
                    
                ],
                "modelFeatures": [
                    
                ],
                "delistReason": [
                    
                ],
                "damageMedia": [
                    
                ],
                "damages": [
                    
                ],
                "carMedias": [
                    
                ],
                "media": [
                    
                ],
                "model": {
                    "modelFeatures": [
                        
                    ],
                    "trimFeatures": [
                        
                    ],
                    "trims": [
                        
                    ],
                    "id": 1891,
                    "name": "Corolla",
                    "imageUrl": "",
                    "wheelType": "2WD",
                    "make": {
                        "id": 106,
                        "name": "Toyota",
                        "imageUrl": "https://storage.googleapis.com/img.autochek.africa/marketplace/toyota.png"
                    },
                    "popular": true
                }
            }
        },
        {
            "car": {
                "features": [
                    
                ],
                "carFeatures": [
                    
                ],
                "modelFeatures": [
                    
                ],
                "delistReason": [
                    
                ],
                "damageMedia": [
                    
                ],
                "damages": [
                    
                ],
                "carMedias": [
                    
                ],
                "media": [
                    
                ],
                "model": {
                    "modelFeatures": [
                        
                    ],
                    "trimFeatures": [
                        
                    ],
                    "trims": [
                        
                    ],
                    "id": 734,
                    "name": "ix35",
                    "imageUrl": "",
                    "wheelType": "2WD",
                    "make": {
                        "id": 47,
                        "name": "Hyundai",
                        "imageUrl": "https://storage.googleapis.com/img.autochek.africa/brands/hyundai.svg"
                    },
                    "popular": false
                }
            }
        }
    ],
    "pagination": {
        "total": 42951,
        "currentPage": 1,
        "pageSize": 10,
        "nextPage": 2,
        "lastPage": 4296
    }
}
