HTTP/1.1 200 OK
Date: Tue, 17 Mar 2026 08:46:32 GMT
Content-Type: application/json; charset=utf-8
Content-Length: 673
Connection: keep-alive
Access-Control-Allow-Origin: *
Access-Control-Allow-Credentials: true
Access-Control-Expose-Headers: set-cookie,Set-Cookie
Cross-Origin-Opener-Policy: same-origin
Cross-Origin-Resource-Policy: same-origin
Origin-Agent-Cluster: ?1
Referrer-Policy: no-referrer
Strict-Transport-Security: max-age=15724800; includeSubDomains
X-Content-Type-Options: ALWAYS
X-DNS-Prefetch-Control: off
X-Download-Options: noopen
X-Frame-Options: ALWAYS
X-Permitted-Cross-Domain-Policies: none
X-XSS-Protection: ALWAYS
ETag: W/"2a1-ItyWFgNz3AfFFXbZYpnNyNM3TYw"
Content-Security-Policy: upgrade-insecure-requests

{
    "modelList": [
        {
            "modelFeatures": [
                
            ],
            "trimFeatures": [
                
            ],
            "trims": [
                
            ],
            "id": 11
        },
        {
            "modelFeatures": [
                
            ],
            "trimFeatures": [
                
            ],
            "trims": [
                
            ],
            "id": 10
        },
        {
            "modelFeatures": [
                
            ],
            "trimFeatures": [
                
            ],
            "trims": [
                
            ],
            "id": 9
        },
        {
            "modelFeatures": [
                
            ],
            "trimFeatures": [
                
            ],
            "trims": [
                
            ],
            "id": 8
        },
        {
            "modelFeatures": [
                
            ],
            "trimFeatures": [
                
            ],
            "trims": [
                
            ],
            "id": 7
        },
        {
            "modelFeatures": [
                
            ],
            "trimFeatures": [
                
            ],
            "trims": [
                
            ],
            "id": 6
        },
        {
            "modelFeatures": [
                
            ],
            "trimFeatures": [
                
            ],
            "trims": [
                
            ],
            "id": 5
        },
        {
            "modelFeatures": [
                
            ],
            "trimFeatures": [
                
            ],
            "trims": [
                
            ],
            "id": 4
        },
        {
            "modelFeatures": [
                
            ],
            "trimFeatures": [
                
            ],
            "trims": [
                
            ],
            "id": 3
        },
        {
            "modelFeatures": [
                
            ],
            "trimFeatures": [
                
            ],
            "trims": [
                
            ],
            "id": 2
        }
    ],
    "pagination": {
        "total": 3353,
        "currentPage": 1,
        "pageSize": 10,
        "nextPage": 2,
        "lastPage": 336
    }
}
