HTTP/1.1 200 OK
Date: Tue, 17 Mar 2026 08:46:39 GMT
Content-Type: application/json; charset=utf-8
Content-Length: 601
Connection: keep-alive
Access-Control-Allow-Origin: *
Access-Control-Allow-Credentials: true
Access-Control-Expose-Headers: set-cookie,Set-Cookie
Cross-Origin-Opener-Policy: same-origin
Cross-Origin-Resource-Policy: same-origin
Origin-Agent-Cluster: ?1
Referrer-Policy: no-referrer
Strict-Transport-Security: max-age=15724800; includeSubDomains
X-Content-Type-Options: ALWAYS
X-DNS-Prefetch-Control: off
X-Download-Options: noopen
X-Frame-Options: ALWAYS
X-Permitted-Cross-Domain-Policies: none
X-XSS-Protection: ALWAYS
ETag: W/"259-cY9ZAfC094Ssxbzj7hxKY7fRB2s"
Content-Security-Policy: upgrade-insecure-requests

{
    "modelList": [
        {
            "modelFeatures": [
                
            ],
            "trimFeatures": [
                
            ],
            "trims": [
                
            ]
        },
        {
            "modelFeatures": [
                
            ],
            "trimFeatures": [
                
            ],
            "trims": [
                
            ]
        },
        {
            "modelFeatures": [
                
            ],
            "trimFeatures": [
                
            ],
            "trims": [
                
            ]
        },
        {
            "modelFeatures": [
                
            ],
            "trimFeatures": [
                
            ],
            "trims": [
                
            ]
        },
        {
            "modelFeatures": [
                
            ],
            "trimFeatures": [
                
            ],
            "trims": [
                
            ]
        },
        {
            "modelFeatures": [
                
            ],
            "trimFeatures": [
                
            ],
            "trims": [
                
            ]
        },
        {
            "modelFeatures": [
                
            ],
            "trimFeatures": [
                
            ],
            "trims": [
                
            ]
        },
        {
            "modelFeatures": [
                
            ],
            "trimFeatures": [
                
            ],
            "trims": [
                
            ]
        },
        {
            "modelFeatures": [
                
            ],
            "trimFeatures": [
                
            ],
            "trims": [
                
            ]
        },
        {
            "modelFeatures": [
                
            ],
            "trimFeatures": [
                
            ],
            "trims": [
                
            ]
        }
    ],
    "pagination": {
        "total": 1946,
        "currentPage": 1,
        "pageSize": 10,
        "nextPage": 2,
        "lastPage": 195
    }
}
