HTTP/1.1 200 OK
Date: Wed, 18 Mar 2026 10:52:24 GMT
Content-Type: application/json; charset=utf-8
Content-Length: 195
Connection: keep-alive
Access-Control-Allow-Origin: *
Access-Control-Allow-Credentials: true
Access-Control-Expose-Headers: set-cookie,Set-Cookie
Cross-Origin-Opener-Policy: same-origin
Cross-Origin-Resource-Policy: same-origin
Origin-Agent-Cluster: ?1
Referrer-Policy: no-referrer
Strict-Transport-Security: max-age=15724800; includeSubDomains
X-Content-Type-Options: ALWAYS
X-DNS-Prefetch-Control: off
X-Download-Options: noopen
X-Frame-Options: ALWAYS
X-Permitted-Cross-Domain-Policies: none
X-XSS-Protection: ALWAYS
ETag: W/"c3-bbkoPey7YwQWkRpgd94k8Tes4ZU"
Content-Security-Policy: upgrade-insecure-requests

{
    "bodyTypeList": [
        {
            "id": 9
        },
        {
            "id": 4
        },
        {
            "id": 7
        },
        {
            "id": 10
        },
        {
            "id": 5
        },
        {
            "id": 19
        },
        {
            "id": 2
        },
        {
            "id": 16
        },
        {
            "id": 22
        },
        {
            "id": 20
        }
    ],
    "pagination": {
        "total": 19,
        "currentPage": 1,
        "pageSize": 10,
        "nextPage": 2,
        "lastPage": 2
    }
}
