HTTP/1.1 200 OK
Date: Wed, 18 Mar 2026 10:50:37 GMT
Content-Type: application/json; charset=utf-8
Content-Length: 2112
Connection: keep-alive
Access-Control-Allow-Origin: *
Access-Control-Allow-Credentials: true
Access-Control-Expose-Headers: set-cookie,Set-Cookie
Cross-Origin-Opener-Policy: same-origin
Cross-Origin-Resource-Policy: same-origin
Origin-Agent-Cluster: ?1
Referrer-Policy: no-referrer
Strict-Transport-Security: max-age=15724800; includeSubDomains
X-Content-Type-Options: ALWAYS
X-DNS-Prefetch-Control: off
X-Download-Options: noopen
X-Frame-Options: ALWAYS
X-Permitted-Cross-Domain-Policies: none
X-XSS-Protection: ALWAYS
ETag: W/"840-REiQSkUkO/EkQ0PYyLEtnU4/Jp4"
Content-Security-Policy: upgrade-insecure-requests

{
    "result": [
        {
            "car": {
                "features": [
                    
                ],
                "carFeatures": [
                    
                ],
                "modelFeatures": [
                    
                ],
                "delistReason": [
                    
                ],
                "damageMedia": [
                    
                ],
                "damages": [
                    
                ],
                "carMedias": [
                    
                ],
                "media": [
                    
                ],
                "model": {
                    "modelFeatures": [
                        
                    ],
                    "trimFeatures": [
                        
                    ],
                    "trims": [
                        
                    ],
                    "id": 711
                }
            }
        },
        {
            "car": {
                "features": [
                    
                ],
                "carFeatures": [
                    
                ],
                "modelFeatures": [
                    
                ],
                "delistReason": [
                    
                ],
                "damageMedia": [
                    
                ],
                "damages": [
                    
                ],
                "carMedias": [
                    
                ],
                "media": [
                    
                ],
                "model": {
                    "modelFeatures": [
                        
                    ],
                    "trimFeatures": [
                        
                    ],
                    "trims": [
                        
                    ],
                    "id": 711
                }
            }
        },
        {
            "car": {
                "features": [
                    
                ],
                "carFeatures": [
                    
                ],
                "modelFeatures": [
                    
                ],
                "delistReason": [
                    
                ],
                "damageMedia": [
                    
                ],
                "damages": [
                    
                ],
                "carMedias": [
                    
                ],
                "media": [
                    
                ],
                "model": {
                    "modelFeatures": [
                        
                    ],
                    "trimFeatures": [
                        
                    ],
                    "trims": [
                        
                    ],
                    "id": 257
                }
            }
        },
        {
            "car": {
                "features": [
                    
                ],
                "carFeatures": [
                    
                ],
                "modelFeatures": [
                    
                ],
                "delistReason": [
                    
                ],
                "damageMedia": [
                    
                ],
                "damages": [
                    
                ],
                "carMedias": [
                    
                ],
                "media": [
                    
                ],
                "model": {
                    "modelFeatures": [
                        
                    ],
                    "trimFeatures": [
                        
                    ],
                    "trims": [
                        
                    ],
                    "id": 841
                }
            }
        },
        {
            "car": {
                "features": [
                    
                ],
                "carFeatures": [
                    
                ],
                "modelFeatures": [
                    
                ],
                "delistReason": [
                    
                ],
                "damageMedia": [
                    
                ],
                "damages": [
                    
                ],
                "carMedias": [
                    
                ],
                "media": [
                    
                ],
                "model": {
                    "modelFeatures": [
                        
                    ],
                    "trimFeatures": [
                        
                    ],
                    "trims": [
                        
                    ],
                    "id": 841
                }
            }
        },
        {
            "car": {
                "features": [
                    
                ],
                "carFeatures": [
                    
                ],
                "modelFeatures": [
                    
                ],
                "delistReason": [
                    
                ],
                "damageMedia": [
                    
                ],
                "damages": [
                    
                ],
                "carMedias": [
                    
                ],
                "media": [
                    
                ],
                "model": {
                    "modelFeatures": [
                        
                    ],
                    "trimFeatures": [
                        
                    ],
                    "trims": [
                        
                    ],
                    "id": 841
                }
            }
        },
        {
            "car": {
                "features": [
                    
                ],
                "carFeatures": [
                    
                ],
                "modelFeatures": [
                    
                ],
                "delistReason": [
                    
                ],
                "damageMedia": [
                    
                ],
                "damages": [
                    
                ],
                "carMedias": [
                    
                ],
                "media": [
                    
                ],
                "model": {
                    "modelFeatures": [
                        
                    ],
                    "trimFeatures": [
                        
                    ],
                    "trims": [
                        
                    ],
                    "id": 841
                }
            }
        },
        {
            "car": {
                "features": [
                    
                ],
                "carFeatures": [
                    
                ],
                "modelFeatures": [
                    
                ],
                "delistReason": [
                    
                ],
                "damageMedia": [
                    
                ],
                "damages": [
                    
                ],
                "carMedias": [
                    
                ],
                "media": [
                    
                ],
                "model": {
                    "modelFeatures": [
                        
                    ],
                    "trimFeatures": [
                        
                    ],
                    "trims": [
                        
                    ],
                    "id": 1891
                }
            }
        },
        {
            "car": {
                "features": [
                    
                ],
                "carFeatures": [
                    
                ],
                "modelFeatures": [
                    
                ],
                "delistReason": [
                    
                ],
                "damageMedia": [
                    
                ],
                "damages": [
                    
                ],
                "carMedias": [
                    
                ],
                "media": [
                    
                ],
                "model": {
                    "modelFeatures": [
                        
                    ],
                    "trimFeatures": [
                        
                    ],
                    "trims": [
                        
                    ],
                    "id": 1891
                }
            }
        },
        {
            "car": {
                "features": [
                    
                ],
                "carFeatures": [
                    
                ],
                "modelFeatures": [
                    
                ],
                "delistReason": [
                    
                ],
                "damageMedia": [
                    
                ],
                "damages": [
                    
                ],
                "carMedias": [
                    
                ],
                "media": [
                    
                ],
                "model": {
                    "modelFeatures": [
                        
                    ],
                    "trimFeatures": [
                        
                    ],
                    "trims": [
                        
                    ],
                    "id": 734
                }
            }
        }
    ],
    "pagination": {
        "total": 42951,
        "currentPage": 1,
        "pageSize": 10,
        "nextPage": 2,
        "lastPage": 4296
    }
}
